<svg xmlns:inkscape="http://www.inkscape.org/namespaces/inkscape" xmlns:sodipodi="http://sodipodi.sourceforge.net/DTD/sodipodi-0.dtd" xmlns="http://www.w3.org/2000/svg" xmlns:svg="http://www.w3.org/2000/svg" version="1.1" id="svg4" sodipodi:docname="x_logo.svg" inkscape:version="1.2.2 (b0a8486541, 2022-12-01)" viewport="0 0 400px 359px">
  <defs id="defs8"/>
  <sodipodi:namedview id="namedview6" pagecolor="#ffffff" bordercolor="#000000" borderopacity="0.25" inkscape:showpageshadow="2" inkscape:pageopacity="0.0" inkscape:pagecheckerboard="0" inkscape:deskcolor="#d1d1d1" showgrid="false" inkscape:zoom="1.0916667" inkscape:cx="89.312977" inkscape:cy="195.57252" inkscape:window-width="1452" inkscape:window-height="752" inkscape:window-x="50" inkscape:window-y="114" inkscape:window-maximized="0" inkscape:current-layer="svg4"/>
  <path d="M 132.00331,0 H 157.6134 L 101.38255,64.025223 167.078,150.87683 H 115.52377 L 75.160045,98.097777 28.950536,150.87683 H 3.3404464 L 62.911741,82.397679 0,0 h 52.834728 l 36.46654,48.213777 z m -8.96353,135.84482 h 14.19689 L 45.374397,14.475268 H 30.119692 Z" id="path2" style="stroke-width:0.556741"/>
</svg>